%YAML 1.1
%TAG !u! tag:unity3d.com,2011:
--- !u!687078895 &4343727234628468602
SpriteAtlas:
  m_ObjectHideFlags: 0
  m_CorrespondingSourceObject: {fileID: 0}
  m_PrefabInstance: {fileID: 0}
  m_PrefabAsset: {fileID: 0}
  m_Name: KeyboardAtlas
  m_EditorData:
    serializedVersion: 2
    textureSettings:
      serializedVersion: 2
      anisoLevel: 1
      compressionQuality: 50
      maxTextureSize: 2048
      textureCompression: 0
      filterMode: 1
      generateMipMaps: 0
      readable: 0
      crunchedCompression: 0
      sRGB: 0
    platformSettings:
    - serializedVersion: 3
      m_BuildTarget: DefaultTexturePlatform
      m_MaxTextureSize: 2048
      m_ResizeAlgorithm: 0
      m_TextureFormat: -1
      m_TextureCompression: 0
      m_CompressionQuality: 50
      m_CrunchedCompression: 0
      m_AllowsAlphaSplitting: 0
      m_Overridden: 0
      m_AndroidETC2FallbackOverride: 0
      m_ForceMaximumCompressionQuality_BC6H_BC7: 0
    packingSettings:
      serializedVersion: 2
      padding: 4
      blockOffset: 1
      allowAlphaSplitting: 0
      enableRotation: 0
      enableTightPacking: 0
    variantMultiplier: 1
    packables:
    - {fileID: 21300000, guid: 7029cbbbce5f0ac4dbc4e93267bfddf4, type: 3}
    - {fileID: 21300000, guid: 2775a1cee10328748889e019ab01d248, type: 3}
    - {fileID: 21300000, guid: b575d7b7d87461b4ea9965b50e367249, type: 3}
    - {fileID: 21300000, guid: 5eb0b332d494ca84d9c38cf77ba0e12d, type: 3}
    - {fileID: 10911, guid: 0000000000000000f000000000000000, type: 0}
    - {fileID: 21300000, guid: ec8b4073237c9724ba8422f71fda3694, type: 3}
    - {fileID: 21300000, guid: 11e4524f21fc6434abbbba83d70d0040, type: 3}
    - {fileID: 21300000, guid: 73830216a21a45e499598b2624ef723e, type: 3}
    totalSpriteSurfaceArea: 0
    bindAsDefault: 0
  m_MasterAtlas: {fileID: 0}
  m_PackedSprites:
  - {fileID: 21300000, guid: 73830216a21a45e499598b2624ef723e, type: 3}
  - {fileID: 21300000, guid: 5eb0b332d494ca84d9c38cf77ba0e12d, type: 3}
  - {fileID: 21300000, guid: ec8b4073237c9724ba8422f71fda3694, type: 3}
  - {fileID: 21300000, guid: 11e4524f21fc6434abbbba83d70d0040, type: 3}
  - {fileID: 21300000, guid: 7029cbbbce5f0ac4dbc4e93267bfddf4, type: 3}
  - {fileID: 21300000, guid: b575d7b7d87461b4ea9965b50e367249, type: 3}
  - {fileID: 21300000, guid: 2775a1cee10328748889e019ab01d248, type: 3}
  m_PackedSpriteNamesToIndex:
  - KeyboardKeyGlyphs_Up
  - KeyboardKeyGlyphs_Backspace
  - KeyboardKeyGlyphs_Left
  - KeyboardKeyGlyphs_Right
  - KeyboardKeyGlyphs_Close
  - KeyboardKeyGlyphs_Dictation
  - ButtonBounds
  m_Tag: KeyboardAtlas
  m_IsVariant: 0
